<svg width="1440" height="827" viewBox="0 0 1440 827" fill="none" xmlns="http://www.w3.org/2000/svg">
<path opacity="0.670317" fill-rule="evenodd" clip-rule="evenodd" d="M1455.55 200.648C1455.55 90.1034 1365.87 0.524459 1255.33 0.647901L-0.121216 2.04983V631.006C-0.121216 717.67 68.879 788.581 155.511 790.946L1455.55 826.447V200.648Z" fill="url(#paint0_linear)"/>
<path fill-rule="evenodd" clip-rule="evenodd" d="M545.716 1.30389L1255.08 1.68073C1365.39 1.73932 1454.83 91.106 1454.97 201.419L1455.78 824.754L1302.09 821.782L545.716 1.30389Z" fill="url(#paint1_linear)"/>
<path opacity="0.45073" fill-rule="evenodd" clip-rule="evenodd" d="M-1.8295 422.944L-1.99991 0.970235L482.201 0.944168L-1.8295 422.944Z" fill="url(#paint2_linear)"/>
<defs>
<linearGradient id="paint0_linear" x1="-73.2629" y1="260.541" x2="1062.99" y2="-335.242" gradientUnits="userSpaceOnUse">
<stop stop-color="#DEF4FC"/>
<stop offset="1" stop-color="#F8FBFF"/>
</linearGradient>
<linearGradient id="paint1_linear" x1="1447.26" y1="824.758" x2="1447.26" y2="16.7347" gradientUnits="userSpaceOnUse">
<stop stop-color="#DEF3FC" stop-opacity="0.511364"/>
<stop offset="1" stop-color="#F2FBFF" stop-opacity="0.132594"/>
</linearGradient>
<linearGradient id="paint2_linear" x1="42.3862" y1="-121.407" x2="-225.178" y2="305.74" gradientUnits="userSpaceOnUse">
<stop stop-color="#DEF3FC"/>
<stop offset="1" stop-color="#F2FBFF" stop-opacity="0.132594"/>
</linearGradient>
</defs>
</svg>
