<svg width="98" height="32" viewBox="0 0 98 32" fill="none" xmlns="http://www.w3.org/2000/svg">
<path d="M24.6421 11.3731H13.2061V14.7542H21.3384C20.9317 19.5185 16.9673 21.6189 13.2569 21.6189C8.47921 21.6189 4.31142 17.828 4.31142 12.5514C4.31142 7.37728 8.2759 3.38143 13.2569 3.38143C17.1197 3.38143 19.3561 5.84041 19.3561 5.84041L21.6941 3.38143C21.6941 3.38143 18.6445 0.000326029 13.1044 0.000326029C6.03953 -0.0509028 0.601074 5.94287 0.601074 12.4489C0.601074 18.8013 5.73457 25 13.3077 25C19.966 25 24.8454 20.4406 24.8454 13.6272C24.8454 12.1928 24.6421 11.3731 24.6421 11.3731V11.3731Z" fill="#5A7184"/>
<path fill-rule="evenodd" clip-rule="evenodd" d="M25.8555 16.9238C25.8555 12.6571 29.2206 9 33.9114 9C37.7864 9 41.9674 11.7429 42.0184 17.0254C42.0184 21.6984 38.4493 25 34.0134 25C29.1186 25 25.8555 21.2921 25.8555 16.9238ZM38.9879 17C38.9879 13.9474 36.7794 12 34.4682 12C31.8489 12 29.8458 14.1053 29.8972 16.9474C29.8972 19.8947 31.9002 22 34.4682 22C36.8308 22 38.9879 20.0526 38.9879 17Z" fill="#5A7184"/>
<path fill-rule="evenodd" clip-rule="evenodd" d="M43.0286 16.9238C43.0286 12.6571 46.3937 9 51.0845 9C54.9595 9 59.1405 11.7429 59.1915 17.0254C59.1915 21.6984 55.6224 25 51.1865 25C46.2917 25 43.0286 21.2921 43.0286 16.9238ZM56.1609 17C56.1609 13.9474 53.9525 12 51.6413 12C49.0219 12 47.0189 14.1053 47.0702 16.9474C47.0702 19.8947 49.0733 22 51.6413 22C54.0038 22 56.1609 20.0526 56.1609 17Z" fill="#5A7184"/>
<path fill-rule="evenodd" clip-rule="evenodd" d="M60.2017 16.9189C60.2017 12.7325 63.5353 9 67.8285 9C69.6974 9 71.1116 9.70614 72.0208 10.8158V9.45395H75.3544V23.7281C75.3544 29.3268 72.1218 32 67.879 32C63.9898 32 61.8179 29.6294 60.7573 27.3596L63.8383 26.0987C64.2929 27.1075 65.5051 28.9232 67.9295 28.9232C70.455 28.9232 72.1218 27.2588 72.1218 24.5351V22.9715C71.1621 24.0307 70.0004 24.8882 67.7275 24.8882C64.0909 24.8882 60.2017 21.6601 60.2017 16.9189ZM72.3239 17.0262C72.3239 13.8848 70.0509 12 67.8838 12C65.558 12 63.2851 13.8325 63.2322 17.0785C63.2322 20.0628 65.4523 22 67.8309 22C70.1038 22 72.3239 20.2723 72.3239 17.0262Z" fill="#5A7184"/>
<path fill-rule="evenodd" clip-rule="evenodd" d="M83.4359 16.9746C83.4359 12.2 86.726 9 90.6545 9C93.699 9 96.007 11.1333 97.0382 13.5714L97.5784 14.8921L87.2171 19.3619C87.8554 20.581 88.8375 21.8 90.9982 21.8C92.9133 21.8 94.0919 20.7333 94.7793 19.6159L97.4802 21.4952C96.3016 23.1206 94.2392 25 90.9982 25C87.1188 25 83.4359 22.0032 83.4359 16.9746ZM93.5377 13.828C93.036 12.8065 92.0326 12 90.5777 12C88.32 12 86.1126 14.5269 86.5139 17L93.5377 13.828Z" fill="#5A7184"/>
<path d="M78.385 25H81.4156V1H78.385V25Z" fill="#5A7184"/>
</svg>
