<svg width="285" height="99" viewBox="0 0 285 99" fill="none" xmlns="http://www.w3.org/2000/svg">
<g filter="url(#filter0_d)">
<path d="M130.093 0V34C130.093 45.0457 139.047 54 150.093 54H253.185C264.231 54 273.185 62.9543 273.185 74V89" stroke="#C5CED5" stroke-width="2"/>
<path d="M130.093 0V34C130.093 45.0457 121.138 54 110.093 54H32.9118C21.8661 54 12.9117 62.9543 12.9117 74V89" stroke="#C5CED5" stroke-width="2"/>
<path fill-rule="evenodd" clip-rule="evenodd" d="M4.83032 81H20.9932L12.9118 90.3333L4.83032 81Z" fill="#C5CED5"/>
<path fill-rule="evenodd" clip-rule="evenodd" d="M264.447 81H280.61L272.528 90.3333L264.447 81Z" fill="#C5CED5"/>
</g>
<defs>
<filter id="filter0_d" x="0.830322" y="0" width="283.779" height="98.3333" filterUnits="userSpaceOnUse" color-interpolation-filters="sRGB">
<feFlood flood-opacity="0" result="BackgroundImageFix"/>
<feColorMatrix in="SourceAlpha" type="matrix" values="0 0 0 0 0 0 0 0 0 0 0 0 0 0 0 0 0 0 127 0"/>
<feOffset dy="4"/>
<feGaussianBlur stdDeviation="2"/>
<feColorMatrix type="matrix" values="0 0 0 0 0 0 0 0 0 0 0 0 0 0 0 0 0 0 0.25 0"/>
<feBlend mode="normal" in2="BackgroundImageFix" result="effect1_dropShadow"/>
<feBlend mode="normal" in="SourceGraphic" in2="effect1_dropShadow" result="shape"/>
</filter>
</defs>
</svg>
